﻿{
	"Static": {
		"Map": "Demo.obj",
		"Physics": "Demo.obj"
	},

	"Entities": [
		{
			"Type": "Windmill.WindmillBlades",
			"Position": "-2|11|16",
			"Blades": 9,
			"Radius": 6,
			"Mesh": "Cube.obj"
		},
		{
			"Type": "Objects.ArcheryTarget",
			"Position": "-4|5|-10",
			"Orientation": "90|0|0"
		},
		{
			"Type": "Environment.Liquid",
			"Position": "0|-2|0"
		},
		{
			"Type": "Objects.WaterWheel",
			"Position": "-20|2.5|16",
			"Orientation": "0|0|90"
		},
		{
			"Type": "Environment.LilyPad",
			"Position": "0|3|0"
		}
	],

	"Origin": "0|0|0",
	"Spawn": "0|2|0"
}
