﻿[
	{
		"$type": "Zeldo.UI.Hud.BossHealthBar, Zeldo",
		"Anchor": 8,
		"Offset": [0, 80],
		"Width": 700,
		"Height": 30,
		"IsVisible": false
	},
	{
		"$type": "Zeldo.UI.Hud.PlayerHealthDisplay, Zeldo",
		"Anchor": 5,
		"Offset": [15, 20],
		"IsVisible": false
	},
	{
		"$type": "Zeldo.UI.DebugView, Zeldo",
		"Anchor": 5,
		"Offset": [15, 15],
		"IsVisible": true
	}
]
