# Blender v2.80 (sub 75) OBJ File: 'WindmillScale.blend'
# www.blender.org
v 40.000000 0.000000 -15.000000
v 40.000000 60.000000 -15.000000
v 42.926353 0.000000 -14.711779
v 42.926353 60.000000 -14.711779
v 45.740253 0.000000 -13.858192
v 45.740253 60.000000 -13.858192
v 48.333553 0.000000 -12.472044
v 48.333553 60.000000 -12.472044
v 50.606602 0.000000 -10.606602
v 50.606602 60.000000 -10.606602
v 52.472046 0.000000 -8.333552
v 52.472046 60.000000 -8.333552
v 53.858192 0.000000 -5.740252
v 53.858192 60.000000 -5.740252
v 54.711777 0.000000 -2.926355
v 54.711777 60.000000 -2.926355
v 55.000000 0.000000 -0.000001
v 55.000000 60.000000 -0.000001
v 54.711781 0.000000 2.926353
v 54.711781 60.000000 2.926353
v 53.858192 0.000000 5.740249
v 53.858192 60.000000 5.740249
v 52.472046 0.000000 8.333552
v 52.472046 60.000000 8.333552
v 50.606602 0.000000 10.606602
v 50.606602 60.000000 10.606602
v 48.333553 0.000000 12.472045
v 48.333553 60.000000 12.472045
v 45.740250 0.000000 13.858194
v 45.740250 60.000000 13.858194
v 42.926350 0.000000 14.711780
v 42.926350 60.000000 14.711780
v 39.999996 0.000000 15.000000
v 39.999996 60.000000 15.000000
v 37.073639 0.000000 14.711778
v 37.073639 60.000000 14.711778
v 34.259743 0.000000 13.858190
v 34.259743 60.000000 13.858190
v 31.666439 0.000000 12.472039
v 31.666439 60.000000 12.472039
v 29.393391 0.000000 10.606595
v 29.393391 60.000000 10.606595
v 27.527950 0.000000 8.333545
v 27.527950 60.000000 8.333545
v 26.141802 0.000000 5.740240
v 26.141802 60.000000 5.740240
v 25.288219 0.000000 2.926342
v 25.288219 60.000000 2.926342
v 25.000000 0.000000 -0.000014
v 25.000000 60.000000 -0.000014
v 25.288223 0.000000 -2.926370
v 25.288223 60.000000 -2.926370
v 26.141813 0.000000 -5.740267
v 26.141813 60.000000 -5.740267
v 27.527966 0.000000 -8.333569
v 27.527966 60.000000 -8.333569
v 29.393412 0.000000 -10.606615
v 29.393412 60.000000 -10.606615
v 31.666462 0.000000 -12.472055
v 31.666462 60.000000 -12.472055
v 34.259769 0.000000 -13.858202
v 34.259769 60.000000 -13.858202
v 37.073669 0.000000 -14.711783
v 37.073669 60.000000 -14.711783
vn 0.0980 0.0000 -0.9952
vn 0.2903 0.0000 -0.9569
vn 0.4714 0.0000 -0.8819
vn 0.6344 0.0000 -0.7730
vn 0.7730 0.0000 -0.6344
vn 0.8819 0.0000 -0.4714
vn 0.9569 0.0000 -0.2903
vn 0.9952 0.0000 -0.0980
vn 0.9952 0.0000 0.0980
vn 0.9569 0.0000 0.2903
vn 0.8819 0.0000 0.4714
vn 0.7730 0.0000 0.6344
vn 0.6344 0.0000 0.7730
vn 0.4714 0.0000 0.8819
vn 0.2903 0.0000 0.9569
vn 0.0980 0.0000 0.9952
vn -0.0980 0.0000 0.9952
vn -0.2903 0.0000 0.9569
vn -0.4714 0.0000 0.8819
vn -0.6344 0.0000 0.7730
vn -0.7730 0.0000 0.6344
vn -0.8819 0.0000 0.4714
vn -0.9569 0.0000 0.2903
vn -0.9952 0.0000 0.0980
vn -0.9952 0.0000 -0.0980
vn -0.9569 0.0000 -0.2903
vn -0.8819 0.0000 -0.4714
vn -0.7730 0.0000 -0.6344
vn -0.6344 0.0000 -0.7730
vn -0.4714 0.0000 -0.8819
vn 0.0000 1.0000 0.0000
vn -0.2903 0.0000 -0.9569
vn -0.0980 0.0000 -0.9952
vn 0.0000 -1.0000 0.0000
s off
f 2//1 3//1 1//1
f 4//2 5//2 3//2
f 6//3 7//3 5//3
f 8//4 9//4 7//4
f 10//5 11//5 9//5
f 12//6 13//6 11//6
f 14//7 15//7 13//7
f 16//8 17//8 15//8
f 18//9 19//9 17//9
f 20//10 21//10 19//10
f 22//11 23//11 21//11
f 24//12 25//12 23//12
f 26//13 27//13 25//13
f 28//14 29//14 27//14
f 30//15 31//15 29//15
f 32//16 33//16 31//16
f 34//17 35//17 33//17
f 36//18 37//18 35//18
f 38//19 39//19 37//19
f 40//20 41//20 39//20
f 42//21 43//21 41//21
f 44//22 45//22 43//22
f 46//23 47//23 45//23
f 48//24 49//24 47//24
f 50//25 51//25 49//25
f 52//26 53//26 51//26
f 54//27 55//27 53//27
f 56//28 57//28 55//28
f 58//29 59//29 57//29
f 60//30 61//30 59//30
f 54//31 38//31 22//31
f 62//32 63//32 61//32
f 64//33 1//33 63//33
f 15//34 31//34 47//34
f 2//1 4//1 3//1
f 4//2 6//2 5//2
f 6//3 8//3 7//3
f 8//4 10//4 9//4
f 10//5 12//5 11//5
f 12//6 14//6 13//6
f 14//7 16//7 15//7
f 16//8 18//8 17//8
f 18//9 20//9 19//9
f 20//10 22//10 21//10
f 22//11 24//11 23//11
f 24//12 26//12 25//12
f 26//13 28//13 27//13
f 28//14 30//14 29//14
f 30//15 32//15 31//15
f 32//16 34//16 33//16
f 34//17 36//17 35//17
f 36//18 38//18 37//18
f 38//19 40//19 39//19
f 40//20 42//20 41//20
f 42//21 44//21 43//21
f 44//22 46//22 45//22
f 46//23 48//23 47//23
f 48//24 50//24 49//24
f 50//25 52//25 51//25
f 52//26 54//26 53//26
f 54//27 56//27 55//27
f 56//28 58//28 57//28
f 58//29 60//29 59//29
f 60//30 62//30 61//30
f 6//31 4//31 2//31
f 2//31 64//31 6//31
f 64//31 62//31 6//31
f 62//31 60//31 58//31
f 58//31 56//31 54//31
f 54//31 52//31 50//31
f 50//31 48//31 54//31
f 48//31 46//31 54//31
f 46//31 44//31 38//31
f 44//31 42//31 38//31
f 42//31 40//31 38//31
f 38//31 36//31 34//31
f 34//31 32//31 30//31
f 30//31 28//31 26//31
f 26//31 24//31 22//31
f 22//31 20//31 18//31
f 18//31 16//31 22//31
f 16//31 14//31 22//31
f 14//31 12//31 10//31
f 10//31 8//31 6//31
f 62//31 58//31 6//31
f 58//31 54//31 6//31
f 38//31 34//31 22//31
f 34//31 30//31 22//31
f 30//31 26//31 22//31
f 14//31 10//31 22//31
f 10//31 6//31 22//31
f 54//31 46//31 38//31
f 6//31 54//31 22//31
f 62//32 64//32 63//32
f 64//33 2//33 1//33
f 63//34 1//34 3//34
f 3//34 5//34 7//34
f 7//34 9//34 11//34
f 11//34 13//34 7//34
f 13//34 15//34 7//34
f 15//34 17//34 19//34
f 19//34 21//34 15//34
f 21//34 23//34 15//34
f 23//34 25//34 31//34
f 25//34 27//34 31//34
f 27//34 29//34 31//34
f 31//34 33//34 35//34
f 35//34 37//34 39//34
f 39//34 41//34 43//34
f 43//34 45//34 47//34
f 47//34 49//34 51//34
f 51//34 53//34 55//34
f 55//34 57//34 63//34
f 57//34 59//34 63//34
f 59//34 61//34 63//34
f 63//34 3//34 7//34
f 31//34 35//34 47//34
f 35//34 39//34 47//34
f 39//34 43//34 47//34
f 47//34 51//34 63//34
f 51//34 55//34 63//34
f 63//34 7//34 15//34
f 15//34 23//34 31//34
f 63//34 15//34 47//34
v -20.000000 0.000000 -20.000000
v -20.000000 160.000000 -20.000000
v -16.098194 0.000000 -19.615705
v -16.098194 160.000000 -19.615705
v -12.346331 0.000000 -18.477591
v -12.346331 160.000000 -18.477591
v -8.888596 0.000000 -16.629393
v -8.888596 160.000000 -16.629393
v -5.857864 0.000000 -14.142136
v -5.857864 160.000000 -14.142136
v -3.370607 0.000000 -11.111403
v -3.370607 160.000000 -11.111403
v -1.522409 0.000000 -7.653668
v -1.522409 160.000000 -7.653668
v -0.384295 0.000000 -3.901807
v -0.384295 160.000000 -3.901807
v 0.000000 0.000000 -0.000002
v 0.000000 160.000000 -0.000002
v -0.384295 0.000000 3.901804
v -0.384295 160.000000 3.901804
v -1.522409 0.000000 7.653666
v -1.522409 160.000000 7.653666
v -3.370607 0.000000 11.111403
v -3.370607 160.000000 11.111403
v -5.857864 0.000000 14.142136
v -5.857864 160.000000 14.142136
v -8.888597 0.000000 16.629393
v -8.888597 160.000000 16.629393
v -12.346334 0.000000 18.477592
v -12.346334 160.000000 18.477592
v -16.098198 0.000000 19.615705
v -16.098198 160.000000 19.615705
v -20.000006 0.000000 20.000000
v -20.000006 160.000000 20.000000
v -23.901814 0.000000 19.615704
v -23.901814 160.000000 19.615704
v -27.653677 0.000000 18.477587
v -27.653677 160.000000 18.477587
v -31.111414 0.000000 16.629387
v -31.111414 160.000000 16.629387
v -34.142143 0.000000 14.142127
v -34.142143 160.000000 14.142127
v -36.629402 0.000000 11.111393
v -36.629402 160.000000 11.111393
v -38.477596 0.000000 7.653654
v -38.477596 160.000000 7.653654
v -39.615707 0.000000 3.901789
v -39.615707 160.000000 3.901789
v -40.000000 0.000000 -0.000019
v -40.000000 160.000000 -0.000019
v -39.615700 0.000000 -3.901827
v -39.615700 160.000000 -3.901827
v -38.477581 0.000000 -7.653689
v -38.477581 160.000000 -7.653689
v -36.629379 0.000000 -11.111425
v -36.629379 160.000000 -11.111425
v -34.142117 0.000000 -14.142153
v -34.142117 160.000000 -14.142153
v -31.111382 0.000000 -16.629408
v -31.111382 160.000000 -16.629408
v -27.653641 0.000000 -18.477602
v -27.653641 160.000000 -18.477602
v -23.901775 0.000000 -19.615711
v -23.901775 160.000000 -19.615711
vn 0.0980 0.0000 -0.9952
vn 0.2903 0.0000 -0.9569
vn 0.4714 0.0000 -0.8819
vn 0.6344 0.0000 -0.7730
vn 0.7730 0.0000 -0.6344
vn 0.8819 0.0000 -0.4714
vn 0.9569 0.0000 -0.2903
vn 0.9952 0.0000 -0.0980
vn 0.9952 0.0000 0.0980
vn 0.9569 0.0000 0.2903
vn 0.8819 0.0000 0.4714
vn 0.7730 0.0000 0.6344
vn 0.6344 0.0000 0.7730
vn 0.4714 0.0000 0.8819
vn 0.2903 0.0000 0.9569
vn 0.0980 0.0000 0.9952
vn -0.0980 0.0000 0.9952
vn -0.2903 0.0000 0.9569
vn -0.4714 0.0000 0.8819
vn -0.6344 0.0000 0.7730
vn -0.7730 0.0000 0.6344
vn -0.8819 0.0000 0.4714
vn -0.9569 0.0000 0.2903
vn -0.9952 0.0000 0.0980
vn -0.9952 0.0000 -0.0980
vn -0.9569 0.0000 -0.2903
vn -0.8819 0.0000 -0.4714
vn -0.7730 0.0000 -0.6344
vn -0.6344 0.0000 -0.7730
vn -0.4714 0.0000 -0.8819
vn 0.0000 1.0000 -0.0000
vn -0.2903 0.0000 -0.9569
vn -0.0980 0.0000 -0.9952
vn 0.0000 -1.0000 0.0000
vn 0.0000 1.0000 0.0001
s off
f 66//35 67//35 65//35
f 68//36 69//36 67//36
f 70//37 71//37 69//37
f 72//38 73//38 71//38
f 74//39 75//39 73//39
f 76//40 77//40 75//40
f 78//41 79//41 77//41
f 80//42 81//42 79//42
f 82//43 83//43 81//43
f 84//44 85//44 83//44
f 86//45 87//45 85//45
f 88//46 89//46 87//46
f 90//47 91//47 89//47
f 92//48 93//48 91//48
f 94//49 95//49 93//49
f 96//50 97//50 95//50
f 98//51 99//51 97//51
f 100//52 101//52 99//52
f 102//53 103//53 101//53
f 104//54 105//54 103//54
f 106//55 107//55 105//55
f 108//56 109//56 107//56
f 110//57 111//57 109//57
f 112//58 113//58 111//58
f 114//59 115//59 113//59
f 116//60 117//60 115//60
f 118//61 119//61 117//61
f 120//62 121//62 119//62
f 122//63 123//63 121//63
f 124//64 125//64 123//64
f 118//65 102//65 86//65
f 126//66 127//66 125//66
f 128//67 65//67 127//67
f 79//68 95//68 111//68
f 66//35 68//35 67//35
f 68//36 70//36 69//36
f 70//37 72//37 71//37
f 72//38 74//38 73//38
f 74//39 76//39 75//39
f 76//40 78//40 77//40
f 78//41 80//41 79//41
f 80//42 82//42 81//42
f 82//43 84//43 83//43
f 84//44 86//44 85//44
f 86//45 88//45 87//45
f 88//46 90//46 89//46
f 90//47 92//47 91//47
f 92//48 94//48 93//48
f 94//49 96//49 95//49
f 96//50 98//50 97//50
f 98//51 100//51 99//51
f 100//52 102//52 101//52
f 102//53 104//53 103//53
f 104//54 106//54 105//54
f 106//55 108//55 107//55
f 108//56 110//56 109//56
f 110//57 112//57 111//57
f 112//58 114//58 113//58
f 114//59 116//59 115//59
f 116//60 118//60 117//60
f 118//61 120//61 119//61
f 120//62 122//62 121//62
f 122//63 124//63 123//63
f 124//64 126//64 125//64
f 70//65 68//65 66//65
f 66//65 128//65 70//65
f 128//65 126//65 70//65
f 126//65 124//65 122//65
f 122//65 120//65 118//65
f 118//65 116//65 114//65
f 114//65 112//65 118//65
f 112//65 110//65 118//65
f 110//65 108//65 102//65
f 108//65 106//65 102//65
f 106//65 104//65 102//65
f 102//65 100//65 98//65
f 98//65 96//65 94//65
f 94//69 92//69 90//69
f 90//65 88//65 86//65
f 86//65 84//65 82//65
f 82//65 80//65 86//65
f 80//65 78//65 86//65
f 78//65 76//65 74//65
f 74//65 72//65 70//65
f 126//65 122//65 70//65
f 122//65 118//65 70//65
f 102//65 98//65 86//65
f 98//65 94//65 86//65
f 94//65 90//65 86//65
f 78//65 74//65 86//65
f 74//65 70//65 86//65
f 118//65 110//65 102//65
f 70//65 118//65 86//65
f 126//66 128//66 127//66
f 128//67 66//67 65//67
f 127//68 65//68 67//68
f 67//68 69//68 71//68
f 71//68 73//68 75//68
f 75//68 77//68 71//68
f 77//68 79//68 71//68
f 79//68 81//68 83//68
f 83//68 85//68 79//68
f 85//68 87//68 79//68
f 87//68 89//68 95//68
f 89//68 91//68 95//68
f 91//68 93//68 95//68
f 95//68 97//68 99//68
f 99//68 101//68 103//68
f 103//68 105//68 107//68
f 107//68 109//68 111//68
f 111//68 113//68 115//68
f 115//68 117//68 119//68
f 119//68 121//68 127//68
f 121//68 123//68 127//68
f 123//68 125//68 127//68
f 127//68 67//68 71//68
f 95//68 99//68 111//68
f 99//68 103//68 111//68
f 103//68 107//68 111//68
f 111//68 115//68 127//68
f 115//68 119//68 127//68
f 127//68 71//68 79//68
f 79//68 87//68 95//68
f 127//68 79//68 111//68
